{
  "ruleChain": {
    "additionalInfo": {
      "description": ""
    },
    "name": "Alarma Obesidad Extrema",
    "firstRuleNodeId": null,
    "root": false,
    "debugMode": false,
    "configuration": null
  },
  "metadata": {
    "firstNodeIndex": 3,
    "nodes": [
      {
        "additionalInfo": {
          "description": "",
          "layoutX": 464,
          "layoutY": 29
        },
        "type": "org.thingsboard.rule.engine.transform.TbTransformMsgNode",
        "name": "Add uid, grc to metadata",
        "debugMode": false,
        "configuration": {
          "jsScript": "metadata.uid = msg.uid;\nmetadata.grc = msg.grc;\nreturn {msg: msg, metadata: metadata, msgType: msgType};"
        }
      },
      {
        "additionalInfo": {
          "description": "",
          "layoutX": 1041,
          "layoutY": 144
        },
        "type": "org.thingsboard.rule.engine.mail.TbSendEmailNode",
        "name": "envia email",
        "debugMode": false,
        "configuration": {
          "useSystemSmtpSettings": false,
          "smtpProtocol": "smtps",
          "smtpHost": "smtp.sendgrid.net",
          "smtpPort": 465,
          "timeout": 10000,
          "enableTls": false,
          "tlsVersion": "TLSv1.2",
          "enableProxy": false,
          "proxyHost": null,
          "proxyPort": null,
          "proxyUser": null,
          "proxyPassword": null,
          "username": "apikey",
          "password": "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"
        }
      },
      {
        "additionalInfo": {
          "description": "",
          "layoutX": 811,
          "layoutY": 33
        },
        "type": "org.thingsboard.rule.engine.mail.TbMsgToEmailNode",
        "name": "prepara email",
        "debugMode": false,
        "configuration": {
          "fromTemplate": "ThingsBoard <adrimarmol314@gmail.com>",
          "toTemplate": "adrimarmol314@gmail.com",
          "ccTemplate": null,
          "bccTemplate": null,
          "subjectTemplate": "${deviceType} obesidad extrema",
          "bodyTemplate": "Device ${deviceName}. Cerda ${uid} tiene un GRC extremadamente elevado. "
        }
      },
      {
        "additionalInfo": {
          "description": "",
          "layoutX": 316,
          "layoutY": 150
        },
        "type": "org.thingsboard.rule.engine.filter.TbJsFilterNode",
        "name": "filter script GRC>4",
        "debugMode": false,
        "configuration": {
          "jsScript": "return msg.grc > 4;"
        }
      },
      {
        "additionalInfo": {
          "description": "",
          "layoutX": 644,
          "layoutY": 150
        },
        "type": "org.thingsboard.rule.engine.action.TbCreateAlarmNode",
        "name": "Alarma Obesidad Extrema",
        "debugMode": false,
        "configuration": {
          "alarmDetailsBuildJs": "var details = {};\n\nif (metadata.prevAlarmDetails) {\n    var prevDetails = JSON.parse(metadata.prevAlarmDetails);\n    details.uid = prevDetails.uid + ', ' + msg.uid.toString();\n    details.count = prevDetails.count + 1;\n} else {\n    details.uid = msg.uid.toString();\n    details.count = 1;\n}\n\nreturn details;",
          "useMessageAlarmData": false,
          "alarmType": "Obesidad Extrema",
          "severity": "MAJOR",
          "propagate": true,
          "relationTypes": []
        }
      }
    ],
    "connections": [
      {
        "fromIndex": 0,
        "toIndex": 4,
        "type": "Success"
      },
      {
        "fromIndex": 2,
        "toIndex": 1,
        "type": "Success"
      },
      {
        "fromIndex": 3,
        "toIndex": 0,
        "type": "True"
      },
      {
        "fromIndex": 4,
        "toIndex": 2,
        "type": "Created"
      },
      {
        "fromIndex": 4,
        "toIndex": 2,
        "type": "Updated"
      }
    ],
    "ruleChainConnections": null
  }
}